{
	"info": {
		"_postman_id": "ade090cb-db5a-43c3-adc5-bcd6f0accc2a",
		"name": "S41 discussion",
		"schema": "https://schema.getpostman.com/json/collection/v2.1.0/collection.json",
		"_exporter_id": "29452596"
	},
	"item": [
		{
			"name": "Create Task",
			"request": {
				"method": "POST",
				"header": [],
				"body": {
					"mode": "raw",
					"raw": "{\r\n    \"name\": \"Reading\"\r\n}",
					"options": {
						"raw": {
							"language": "json"
						}
					}
				},
				"url": {
					"raw": "localhost:3001/tasks",
					"host": [
						"localhost"
					],
					"port": "3001",
					"path": [
						"tasks"
					]
				}
			},
			"response": []
		},
		{
			"name": "Get all task",
			"request": {
				"method": "GET",
				"header": [],
				"url": {
					"raw": "localhost:3001/tasks",
					"host": [
						"localhost"
					],
					"port": "3001",
					"path": [
						"tasks"
					]
				}
			},
			"response": []
		},
		{
			"name": "Post user route",
			"request": {
				"method": "POST",
				"header": []
			},
			"response": []
		}
	]
}